<?xml version="1.0" encoding="UTF-8" standalone="no"?>
<!-- Created with Inkscape (http://www.inkscape.org/) -->

<svg
   width="48.0px"
   height="48.0px"
   viewBox="0 0 48.0 48.0"
   version="1.1"
   id="SVGRoot"
   sodipodi:docname="logo.svg"
   inkscape:version="1.1.1 (3bf5ae0d25, 2021-09-20, custom)"
   xmlns:inkscape="http://www.inkscape.org/namespaces/inkscape"
   xmlns:sodipodi="http://sodipodi.sourceforge.net/DTD/sodipodi-0.dtd"
   xmlns="http://www.w3.org/2000/svg"
   xmlns:svg="http://www.w3.org/2000/svg">
  <sodipodi:namedview
     id="namedview916"
     pagecolor="#ffffff"
     bordercolor="#666666"
     borderopacity="1.0"
     inkscape:pageshadow="2"
     inkscape:pageopacity="0.0"
     inkscape:pagecheckerboard="0"
     inkscape:document-units="px"
     showgrid="false"
     inkscape:zoom="14.493388"
     inkscape:cx="9.2455956"
     inkscape:cy="20.699095"
     inkscape:window-width="1908"
     inkscape:window-height="1041"
     inkscape:window-x="0"
     inkscape:window-y="27"
     inkscape:window-maximized="1"
     inkscape:current-layer="layer1">
    <inkscape:grid
       type="xygrid"
       id="grid979"
       empspacing="6" />
  </sodipodi:namedview>
  <defs
     id="defs911" />
  <g
     inkscape:label="Capa 1"
     inkscape:groupmode="layer"
     id="layer1">
    <circle
       style="fill:#33d17a;stroke:none;stroke-width:6;stroke-linecap:round;stroke-linejoin:round;paint-order:markers fill stroke"
       id="path1026"
       cx="24"
       cy="24"
       r="24" />
    <g
       id="g3693">
      <g
         id="g3675">
        <path
           style="opacity:1;fill:#2ec27e;stroke:#2ec27e;stroke-width:1.5;stroke-linecap:butt;stroke-linejoin:miter;stroke-miterlimit:4;stroke-dasharray:none;stroke-opacity:1"
           d="M 17,22 H 9"
           id="path3099" />
        <path
           style="opacity:1;fill:#2ec27e;stroke:#2ec27e;stroke-width:1.5;stroke-linecap:butt;stroke-linejoin:miter;stroke-miterlimit:4;stroke-dasharray:none;stroke-opacity:1"
           d="m 18,12 v 9"
           id="path2267" />
        <path
           style="opacity:1;fill:#2ec27e;stroke:#2ec27e;stroke-width:1.5;stroke-linecap:butt;stroke-linejoin:miter;stroke-miterlimit:4;stroke-dasharray:none;stroke-opacity:1"
           d="m 21,12 v 9"
           id="path2709" />
        <path
           style="opacity:1;fill:#2ec27e;stroke:#2ec27e;stroke-width:1.5;stroke-linecap:butt;stroke-linejoin:miter;stroke-miterlimit:4;stroke-dasharray:none;stroke-opacity:1"
           d="M 27,12 V 24"
           id="path2711" />
        <path
           style="opacity:1;fill:#2ec27e;stroke:#2ec27e;stroke-width:1.5;stroke-linecap:butt;stroke-linejoin:miter;stroke-miterlimit:4;stroke-dasharray:none;stroke-opacity:1"
           d="M 31,12 V 24"
           id="path2715" />
        <path
           style="opacity:1;fill:#2ec27e;stroke:#2ec27e;stroke-width:1.5;stroke-linecap:butt;stroke-linejoin:miter;stroke-miterlimit:4;stroke-dasharray:none;stroke-opacity:1"
           d="M 27,24 V 37"
           id="path2719" />
        <path
           style="opacity:1;fill:#2ec27e;stroke:#2ec27e;stroke-width:1.5;stroke-linecap:butt;stroke-linejoin:miter;stroke-miterlimit:4;stroke-dasharray:none;stroke-opacity:1"
           d="M 31,24 V 37"
           id="path2717" />
        <path
           style="opacity:1;fill:#2ec27e;stroke:#2ec27e;stroke-width:1.5;stroke-linecap:butt;stroke-linejoin:miter;stroke-miterlimit:4;stroke-dasharray:none;stroke-opacity:1"
           d="M 17,26 H 9"
           id="path3103" />
        <path
           style="opacity:1;fill:#2ec27e;stroke:#2ec27e;stroke-width:1.5;stroke-linecap:butt;stroke-linejoin:miter;stroke-miterlimit:4;stroke-dasharray:none;stroke-opacity:1"
           d="M 18,27 V 37"
           id="path3185"
           sodipodi:nodetypes="cc" />
        <path
           style="opacity:1;fill:#2ec27e;stroke:#2ec27e;stroke-width:1.5;stroke-linecap:butt;stroke-linejoin:miter;stroke-miterlimit:4;stroke-dasharray:none;stroke-opacity:1"
           d="M 21,27 V 37"
           id="path3187"
           sodipodi:nodetypes="cc" />
      </g>
      <g
         id="g2072"
         transform="translate(-1)">
        <g
           id="g2060"
           transform="translate(0,-1)">
          <rect
             style="fill:none;stroke:#26a269;stroke-width:1.5;stroke-linecap:round;stroke-linejoin:miter;stroke-miterlimit:4;stroke-dasharray:none;paint-order:markers fill stroke"
             id="rect1260"
             width="6"
             height="6"
             x="34"
             y="10"
             ry="0" />
          <path
             style="fill:none;stroke:#26a269;stroke-width:1.5;stroke-linecap:round;stroke-linejoin:miter;stroke-miterlimit:4;stroke-dasharray:none;stroke-opacity:1"
             d="M 34,13 H 10 V 38 H 38 V 25 H 24"
             id="path1315"
             sodipodi:nodetypes="cccccc" />
          <rect
             style="fill:none;stroke:#26a269;stroke-width:1.5;stroke-linecap:round;stroke-linejoin:miter;stroke-miterlimit:4;stroke-dasharray:none;paint-order:markers fill stroke"
             id="rect1562"
             width="6"
             height="6"
             x="18"
             y="22"
             ry="0" />
        </g>
      </g>
    </g>
  </g>
</svg>
